<?xml version="1.0" encoding="UTF-8" standalone="no"?>
<!-- Created with Inkscape (http://www.inkscape.org/) -->

<svg
   xmlns:dc="http://purl.org/dc/elements/1.1/"
   xmlns:cc="http://creativecommons.org/ns#"
   xmlns:rdf="http://www.w3.org/1999/02/22-rdf-syntax-ns#"
   xmlns:svg="http://www.w3.org/2000/svg"
   xmlns="http://www.w3.org/2000/svg"
   xmlns:sodipodi="http://sodipodi.sourceforge.net/DTD/sodipodi-0.dtd"
   xmlns:inkscape="http://www.inkscape.org/namespaces/inkscape"
   width="10.57953cm"
   height="4.0363302cm"
   viewBox="0 0 105.7953 40.363302"
   version="1.1"
   id="svg8"
   inkscape:version="0.92.2 5c3e80d, 2017-08-06"
   sodipodi:docname="composition.svg">
  <defs
     id="defs2">
    <marker
       inkscape:isstock="true"
       style="overflow:visible"
       id="marker3135"
       refX="0"
       refY="0"
       orient="auto"
       inkscape:stockid="Arrow2Mend">
      <path
         transform="scale(-0.6)"
         d="M 8.7185878,4.0337352 -2.2072895,0.01601326 8.7185884,-4.0017078 c -1.7454984,2.3720609 -1.7354408,5.6174519 -6e-7,8.035443 z"
         style="fill:#555753;fill-opacity:1;fill-rule:evenodd;stroke:#555753;stroke-width:0.625;stroke-linejoin:round;stroke-opacity:1"
         id="path3133"
         inkscape:connector-curvature="0" />
    </marker>
    <marker
       inkscape:stockid="Arrow2Mend"
       orient="auto"
       refY="0"
       refX="0"
       id="marker3129"
       style="overflow:visible"
       inkscape:isstock="true"
       inkscape:collect="always">
      <path
         inkscape:connector-curvature="0"
         id="path3127"
         style="fill:#555753;fill-opacity:1;fill-rule:evenodd;stroke:#555753;stroke-width:0.625;stroke-linejoin:round;stroke-opacity:1"
         d="M 8.7185878,4.0337352 -2.2072895,0.01601326 8.7185884,-4.0017078 c -1.7454984,2.3720609 -1.7354408,5.6174519 -6e-7,8.035443 z"
         transform="scale(-0.6)" />
    </marker>
    <marker
       inkscape:isstock="true"
       style="overflow:visible"
       id="marker3116"
       refX="0"
       refY="0"
       orient="auto"
       inkscape:stockid="Arrow2Mend">
      <path
         transform="scale(-0.6)"
         d="M 8.7185878,4.0337352 -2.2072895,0.01601326 8.7185884,-4.0017078 c -1.7454984,2.3720609 -1.7354408,5.6174519 -6e-7,8.035443 z"
         style="fill:#000000;fill-opacity:1;fill-rule:evenodd;stroke:#000000;stroke-width:0.625;stroke-linejoin:round;stroke-opacity:1"
         id="path3114"
         inkscape:connector-curvature="0" />
    </marker>
    <marker
       inkscape:stockid="Arrow2Mend"
       orient="auto"
       refY="0"
       refX="0"
       id="marker3108"
       style="overflow:visible"
       inkscape:isstock="true">
      <path
         inkscape:connector-curvature="0"
         id="path3106"
         style="fill:#000000;fill-opacity:1;fill-rule:evenodd;stroke:#000000;stroke-width:0.625;stroke-linejoin:round;stroke-opacity:1"
         d="M 8.7185878,4.0337352 -2.2072895,0.01601326 8.7185884,-4.0017078 c -1.7454984,2.3720609 -1.7354408,5.6174519 -6e-7,8.035443 z"
         transform="scale(-0.6)" />
    </marker>
    <marker
       inkscape:stockid="Arrow2Mend"
       orient="auto"
       refY="0"
       refX="0"
       id="marker2794"
       style="overflow:visible"
       inkscape:isstock="true"
       inkscape:collect="always">
      <path
         inkscape:connector-curvature="0"
         id="path2792"
         style="fill:#000000;fill-opacity:1;fill-rule:evenodd;stroke:#000000;stroke-width:0.625;stroke-linejoin:round;stroke-opacity:1"
         d="M 8.7185878,4.0337352 -2.2072895,0.01601326 8.7185884,-4.0017078 c -1.7454984,2.3720609 -1.7354408,5.6174519 -6e-7,8.035443 z"
         transform="scale(-0.6)" />
    </marker>
    <marker
       inkscape:isstock="true"
       style="overflow:visible"
       id="marker2788"
       refX="0"
       refY="0"
       orient="auto"
       inkscape:stockid="Arrow2Mend"
       inkscape:collect="always">
      <path
         transform="scale(-0.6)"
         d="M 8.7185878,4.0337352 -2.2072895,0.01601326 8.7185884,-4.0017078 c -1.7454984,2.3720609 -1.7354408,5.6174519 -6e-7,8.035443 z"
         style="fill:#000000;fill-opacity:1;fill-rule:evenodd;stroke:#000000;stroke-width:0.625;stroke-linejoin:round;stroke-opacity:1"
         id="path2786"
         inkscape:connector-curvature="0" />
    </marker>
    <marker
       inkscape:stockid="Arrow2Mend"
       orient="auto"
       refY="0"
       refX="0"
       id="marker2780"
       style="overflow:visible"
       inkscape:isstock="true">
      <path
         inkscape:connector-curvature="0"
         id="path2778"
         style="fill:#000000;fill-opacity:1;fill-rule:evenodd;stroke:#000000;stroke-width:0.625;stroke-linejoin:round;stroke-opacity:1"
         d="M 8.7185878,4.0337352 -2.2072895,0.01601326 8.7185884,-4.0017078 c -1.7454984,2.3720609 -1.7354408,5.6174519 -6e-7,8.035443 z"
         transform="scale(-0.6)" />
    </marker>
    <marker
       inkscape:stockid="Arrow2Mend"
       orient="auto"
       refY="0"
       refX="0"
       id="marker2774"
       style="overflow:visible"
       inkscape:isstock="true">
      <path
         inkscape:connector-curvature="0"
         id="path2772"
         style="fill:#000000;fill-opacity:1;fill-rule:evenodd;stroke:#000000;stroke-width:0.625;stroke-linejoin:round;stroke-opacity:1"
         d="M 8.7185878,4.0337352 -2.2072895,0.01601326 8.7185884,-4.0017078 c -1.7454984,2.3720609 -1.7354408,5.6174519 -6e-7,8.035443 z"
         transform="scale(-0.6)" />
    </marker>
    <marker
       inkscape:stockid="Arrow2Mend"
       orient="auto"
       refY="0"
       refX="0"
       id="marker1873"
       style="overflow:visible"
       inkscape:isstock="true">
      <path
         id="path1871"
         style="fill:#000000;fill-opacity:1;fill-rule:evenodd;stroke:#000000;stroke-width:0.625;stroke-linejoin:round;stroke-opacity:1"
         d="M 8.7185878,4.0337352 -2.2072895,0.01601326 8.7185884,-4.0017078 c -1.7454984,2.3720609 -1.7354408,5.6174519 -6e-7,8.035443 z"
         transform="scale(-0.6)"
         inkscape:connector-curvature="0" />
    </marker>
    <marker
       inkscape:stockid="Arrow2Mend"
       orient="auto"
       refY="0"
       refX="0"
       id="marker5455"
       style="overflow:visible"
       inkscape:isstock="true">
      <path
         id="path5453"
         style="fill:#000000;fill-opacity:1;fill-rule:evenodd;stroke:#000000;stroke-width:0.625;stroke-linejoin:round;stroke-opacity:1"
         d="M 8.7185878,4.0337352 -2.2072895,0.01601326 8.7185884,-4.0017078 c -1.7454984,2.3720609 -1.7354408,5.6174519 -6e-7,8.035443 z"
         transform="scale(-0.6)"
         inkscape:connector-curvature="0" />
    </marker>
    <marker
       inkscape:isstock="true"
       style="overflow:visible"
       id="marker5431"
       refX="0"
       refY="0"
       orient="auto"
       inkscape:stockid="Arrow2Mend">
      <path
         inkscape:connector-curvature="0"
         transform="scale(-0.6)"
         d="M 8.7185878,4.0337352 -2.2072895,0.01601326 8.7185884,-4.0017078 c -1.7454984,2.3720609 -1.7354408,5.6174519 -6e-7,8.035443 z"
         style="fill:#555753;fill-opacity:1;fill-rule:evenodd;stroke:#555753;stroke-width:0.625;stroke-linejoin:round;stroke-opacity:1"
         id="path5429" />
    </marker>
    <marker
       inkscape:stockid="Arrow2Mend"
       orient="auto"
       refY="0"
       refX="0"
       id="marker5423"
       style="overflow:visible"
       inkscape:isstock="true">
      <path
         id="path5421"
         style="fill:#000000;fill-opacity:1;fill-rule:evenodd;stroke:#000000;stroke-width:0.625;stroke-linejoin:round;stroke-opacity:1"
         d="M 8.7185878,4.0337352 -2.2072895,0.01601326 8.7185884,-4.0017078 c -1.7454984,2.3720609 -1.7354408,5.6174519 -6e-7,8.035443 z"
         transform="scale(-0.6)"
         inkscape:connector-curvature="0" />
    </marker>
    <marker
       inkscape:stockid="Arrow2Mend"
       orient="auto"
       refY="0"
       refX="0"
       id="marker5772"
       style="overflow:visible"
       inkscape:isstock="true">
      <path
         inkscape:connector-curvature="0"
         id="path5770"
         style="fill:#000000;fill-opacity:1;fill-rule:evenodd;stroke:#000000;stroke-width:0.625;stroke-linejoin:round;stroke-opacity:1"
         d="M 8.7185878,4.0337352 -2.2072895,0.01601326 8.7185884,-4.0017078 c -1.7454984,2.3720609 -1.7354408,5.6174519 -6e-7,8.035443 z"
         transform="scale(-0.6)" />
    </marker>
    <marker
       inkscape:stockid="Arrow2Mend"
       orient="auto"
       refY="0"
       refX="0"
       id="marker5758"
       style="overflow:visible"
       inkscape:isstock="true"
       inkscape:collect="always">
      <path
         inkscape:connector-curvature="0"
         id="path5756"
         style="fill:#000000;fill-opacity:1;fill-rule:evenodd;stroke:#000000;stroke-width:0.625;stroke-linejoin:round;stroke-opacity:1"
         d="M 8.7185878,4.0337352 -2.2072895,0.01601326 8.7185884,-4.0017078 c -1.7454984,2.3720609 -1.7354408,5.6174519 -6e-7,8.035443 z"
         transform="scale(-0.6)" />
    </marker>
    <marker
       inkscape:isstock="true"
       style="overflow:visible"
       id="marker5692"
       refX="0"
       refY="0"
       orient="auto"
       inkscape:stockid="Arrow2Mend"
       inkscape:collect="always">
      <path
         transform="scale(-0.6)"
         d="M 8.7185878,4.0337352 -2.2072895,0.01601326 8.7185884,-4.0017078 c -1.7454984,2.3720609 -1.7354408,5.6174519 -6e-7,8.035443 z"
         style="fill:#000000;fill-opacity:1;fill-rule:evenodd;stroke:#000000;stroke-width:0.625;stroke-linejoin:round;stroke-opacity:1"
         id="path5690"
         inkscape:connector-curvature="0" />
    </marker>
    <marker
       inkscape:isstock="true"
       style="overflow:visible"
       id="marker1067"
       refX="0"
       refY="0"
       orient="auto"
       inkscape:stockid="Arrow2Mend">
      <path
         transform="scale(-0.6)"
         d="M 8.7185878,4.0337352 -2.2072895,0.01601326 8.7185884,-4.0017078 c -1.7454984,2.3720609 -1.7354408,5.6174519 -6e-7,8.035443 z"
         style="fill:#000000;fill-opacity:1;fill-rule:evenodd;stroke:#000000;stroke-width:0.625;stroke-linejoin:round;stroke-opacity:1"
         id="path1065"
         inkscape:connector-curvature="0" />
    </marker>
    <marker
       inkscape:isstock="true"
       style="overflow:visible"
       id="marker1059"
       refX="0"
       refY="0"
       orient="auto"
       inkscape:stockid="Arrow2Mend">
      <path
         transform="scale(-0.6)"
         d="M 8.7185878,4.0337352 -2.2072895,0.01601326 8.7185884,-4.0017078 c -1.7454984,2.3720609 -1.7354408,5.6174519 -6e-7,8.035443 z"
         style="fill:#000000;fill-opacity:1;fill-rule:evenodd;stroke:#000000;stroke-width:0.625;stroke-linejoin:round;stroke-opacity:1"
         id="path1057"
         inkscape:connector-curvature="0" />
    </marker>
    <marker
       inkscape:stockid="Arrow2Mend"
       orient="auto"
       refY="0"
       refX="0"
       id="marker1053"
       style="overflow:visible"
       inkscape:isstock="true">
      <path
         id="path1051"
         style="fill:#000000;fill-opacity:1;fill-rule:evenodd;stroke:#000000;stroke-width:0.625;stroke-linejoin:round;stroke-opacity:1"
         d="M 8.7185878,4.0337352 -2.2072895,0.01601326 8.7185884,-4.0017078 c -1.7454984,2.3720609 -1.7354408,5.6174519 -6e-7,8.035443 z"
         transform="scale(-0.6)"
         inkscape:connector-curvature="0" />
    </marker>
    <marker
       inkscape:isstock="true"
       style="overflow:visible"
       id="marker1027"
       refX="0"
       refY="0"
       orient="auto"
       inkscape:stockid="Arrow2Mend">
      <path
         transform="scale(-0.6)"
         d="M 8.7185878,4.0337352 -2.2072895,0.01601326 8.7185884,-4.0017078 c -1.7454984,2.3720609 -1.7354408,5.6174519 -6e-7,8.035443 z"
         style="fill:#000000;fill-opacity:1;fill-rule:evenodd;stroke:#000000;stroke-width:0.625;stroke-linejoin:round;stroke-opacity:1"
         id="path1025"
         inkscape:connector-curvature="0" />
    </marker>
    <marker
       inkscape:stockid="Arrow2Mend"
       orient="auto"
       refY="0"
       refX="0"
       id="marker1021"
       style="overflow:visible"
       inkscape:isstock="true"
       inkscape:collect="always">
      <path
         id="path1019"
         style="fill:#000000;fill-opacity:1;fill-rule:evenodd;stroke:#000000;stroke-width:0.625;stroke-linejoin:round;stroke-opacity:1"
         d="M 8.7185878,4.0337352 -2.2072895,0.01601326 8.7185884,-4.0017078 c -1.7454984,2.3720609 -1.7354408,5.6174519 -6e-7,8.035443 z"
         transform="scale(-0.6)"
         inkscape:connector-curvature="0" />
    </marker>
    <marker
       inkscape:isstock="true"
       style="overflow:visible"
       id="marker987"
       refX="0"
       refY="0"
       orient="auto"
       inkscape:stockid="Arrow2Mend">
      <path
         transform="scale(-0.6)"
         d="M 8.7185878,4.0337352 -2.2072895,0.01601326 8.7185884,-4.0017078 c -1.7454984,2.3720609 -1.7354408,5.6174519 -6e-7,8.035443 z"
         style="fill:#000000;fill-opacity:1;fill-rule:evenodd;stroke:#000000;stroke-width:0.625;stroke-linejoin:round;stroke-opacity:1"
         id="path985"
         inkscape:connector-curvature="0" />
    </marker>
    <marker
       inkscape:stockid="Arrow2Mend"
       orient="auto"
       refY="0"
       refX="0"
       id="marker975"
       style="overflow:visible"
       inkscape:isstock="true"
       inkscape:collect="always">
      <path
         id="path973"
         style="fill:#000000;fill-opacity:1;fill-rule:evenodd;stroke:#000000;stroke-width:0.625;stroke-linejoin:round;stroke-opacity:1"
         d="M 8.7185878,4.0337352 -2.2072895,0.01601326 8.7185884,-4.0017078 c -1.7454984,2.3720609 -1.7354408,5.6174519 -6e-7,8.035443 z"
         transform="scale(-0.6)"
         inkscape:connector-curvature="0" />
    </marker>
    <marker
       inkscape:isstock="true"
       style="overflow:visible"
       id="marker969"
       refX="0"
       refY="0"
       orient="auto"
       inkscape:stockid="Arrow2Mend"
       inkscape:collect="always">
      <path
         transform="scale(-0.6)"
         d="M 8.7185878,4.0337352 -2.2072895,0.01601326 8.7185884,-4.0017078 c -1.7454984,2.3720609 -1.7354408,5.6174519 -6e-7,8.035443 z"
         style="fill:#555753;fill-opacity:1;fill-rule:evenodd;stroke:#555753;stroke-width:0.625;stroke-linejoin:round;stroke-opacity:1"
         id="path967"
         inkscape:connector-curvature="0" />
    </marker>
    <marker
       inkscape:stockid="Arrow1Send"
       orient="auto"
       refY="0"
       refX="0"
       id="Arrow1Send"
       style="overflow:visible"
       inkscape:isstock="true">
      <path
         id="path4854"
         d="M 0,0 5,-5 -12.5,0 5,5 Z"
         style="fill:#000000;fill-opacity:1;fill-rule:evenodd;stroke:#000000;stroke-width:1.00000003pt;stroke-opacity:1"
         transform="matrix(-0.2,0,0,-0.2,-1.2,0)"
         inkscape:connector-curvature="0" />
    </marker>
    <marker
       inkscape:stockid="Arrow2Send"
       orient="auto"
       refY="0"
       refX="0"
       id="Arrow2Send"
       style="overflow:visible"
       inkscape:isstock="true">
      <path
         id="path4872"
         style="fill:#000000;fill-opacity:1;fill-rule:evenodd;stroke:#000000;stroke-width:0.625;stroke-linejoin:round;stroke-opacity:1"
         d="M 8.7185878,4.0337352 -2.2072895,0.01601326 8.7185884,-4.0017078 c -1.7454984,2.3720609 -1.7354408,5.6174519 -6e-7,8.035443 z"
         transform="matrix(-0.3,0,0,-0.3,0.69,0)"
         inkscape:connector-curvature="0" />
    </marker>
    <linearGradient
       id="linearGradient5048">
      <stop
         id="stop5050"
         offset="0"
         style="stop-color:black;stop-opacity:0;" />
      <stop
         style="stop-color:black;stop-opacity:1;"
         offset="0.5"
         id="stop5056" />
      <stop
         id="stop5052"
         offset="1"
         style="stop-color:black;stop-opacity:0;" />
    </linearGradient>
    <linearGradient
       id="linearGradient259">
      <stop
         style="stop-color:#fafafa;stop-opacity:1.0000000;"
         offset="0.0000000"
         id="stop260" />
      <stop
         style="stop-color:#bbbbbb;stop-opacity:1.0000000;"
         offset="1.0000000"
         id="stop261" />
    </linearGradient>
    <linearGradient
       id="linearGradient269">
      <stop
         style="stop-color:#a3a3a3;stop-opacity:1.0000000;"
         offset="0.0000000"
         id="stop270" />
      <stop
         style="stop-color:#4c4c4c;stop-opacity:1.0000000;"
         offset="1.0000000"
         id="stop271" />
    </linearGradient>
    <linearGradient
       id="linearGradient15662">
      <stop
         style="stop-color:#ffffff;stop-opacity:1.0000000;"
         offset="0.0000000"
         id="stop15664" />
      <stop
         style="stop-color:#f8f8f8;stop-opacity:1.0000000;"
         offset="1.0000000"
         id="stop15666" />
    </linearGradient>
    <radialGradient
       gradientUnits="userSpaceOnUse"
       fy="114.5684"
       fx="20.892099"
       r="5.256"
       cy="114.5684"
       cx="20.892099"
       id="aigrd2-9-3">
      <stop
         id="stop15566-4-3"
         style="stop-color:#F0F0F0"
         offset="0" />
      <stop
         id="stop15568-7-6"
         style="stop-color:#9a9a9a;stop-opacity:1.0000000;"
         offset="1.0000000" />
    </radialGradient>
    <radialGradient
       gradientUnits="userSpaceOnUse"
       fy="64.567902"
       fx="20.892099"
       r="5.257"
       cy="64.567902"
       cx="20.892099"
       id="aigrd3-4-8">
      <stop
         id="stop15573-5-6"
         style="stop-color:#F0F0F0"
         offset="0" />
      <stop
         id="stop15575-0-2"
         style="stop-color:#9a9a9a;stop-opacity:1.0000000;"
         offset="1.0000000" />
    </radialGradient>
    <marker
       inkscape:stockid="Arrow2Mend"
       orient="auto"
       refY="0"
       refX="0"
       id="Arrow2Mend-0-6-8"
       style="overflow:visible"
       inkscape:isstock="true">
      <path
         inkscape:connector-curvature="0"
         id="path20165-9-0-6"
         style="fill:#000000;fill-opacity:1;fill-rule:evenodd;stroke:#000000;stroke-width:0.625;stroke-linejoin:round;stroke-opacity:1"
         d="M 8.7185878,4.0337352 -2.2072895,0.01601326 8.7185884,-4.0017078 c -1.7454984,2.3720609 -1.7354408,5.6174519 -6e-7,8.035443 z"
         transform="scale(-0.6)" />
    </marker>
  </defs>
  <sodipodi:namedview
     id="base"
     pagecolor="#ffffff"
     bordercolor="#666666"
     borderopacity="1.0"
     inkscape:pageopacity="0.0"
     inkscape:pageshadow="2"
     inkscape:zoom="11.313708"
     inkscape:cx="178.14985"
     inkscape:cy="55.047432"
     inkscape:document-units="mm"
     inkscape:current-layer="layer1"
     showgrid="false"
     inkscape:snap-center="true"
     inkscape:window-width="1916"
     inkscape:window-height="1041"
     inkscape:window-x="0"
     inkscape:window-y="37"
     inkscape:window-maximized="0"
     showguides="true"
     inkscape:guide-bbox="true"
     units="cm"
     fit-margin-top="0"
     fit-margin-left="0"
     fit-margin-right="0"
     fit-margin-bottom="0">
    <sodipodi:guide
       position="-1.0822929,8.7560893"
       orientation="1,0"
       id="guide5795"
       inkscape:locked="false"
       inkscape:label=""
       inkscape:color="rgb(0,0,255)" />
    <sodipodi:guide
       position="58.396523,-9.087337"
       orientation="1,0"
       id="guide1187"
       inkscape:locked="false"
       inkscape:label=""
       inkscape:color="rgb(0,0,255)" />
    <sodipodi:guide
       position="26.813426,23.501169"
       orientation="1,0"
       id="guide1875"
       inkscape:locked="false" />
    <sodipodi:guide
       position="90.834308,4.2296471"
       orientation="1,0"
       id="guide2763"
       inkscape:locked="false" />
    <sodipodi:guide
       position="95.329397,7.4013822"
       orientation="0,1"
       id="guide2802"
       inkscape:locked="false" />
    <sodipodi:guide
       position="84.782815,8.1686313"
       orientation="1,0"
       id="guide2806"
       inkscape:locked="false" />
    <sodipodi:guide
       position="95.33126,13.616647"
       orientation="0,1"
       id="guide3118"
       inkscape:locked="false" />
    <sodipodi:guide
       position="76.969581,36.700196"
       orientation="1,0"
       id="guide3139"
       inkscape:locked="false" />
    <sodipodi:guide
       position="55.612502,24.076705"
       orientation="0,1"
       id="guide3141"
       inkscape:locked="false" />
    <sodipodi:guide
       position="43.313706,15.871538"
       orientation="1,0"
       id="guide3143"
       inkscape:locked="false" />
    <sodipodi:guide
       position="38.313523,23.26731"
       orientation="1,0"
       id="guide3145"
       inkscape:locked="false"
       inkscape:label=""
       inkscape:color="rgb(0,0,255)" />
    <sodipodi:guide
       position="48.313523,23.051445"
       orientation="1,0"
       id="guide3147"
       inkscape:locked="false"
       inkscape:label=""
       inkscape:color="rgb(0,0,255)" />
    <sodipodi:guide
       position="39.664081,23.466092"
       orientation="1,0"
       id="guide3149"
       inkscape:locked="false" />
    <sodipodi:guide
       position="46.962523,20.800079"
       orientation="1,0"
       id="guide3151"
       inkscape:locked="false"
       inkscape:label=""
       inkscape:color="rgb(0,0,255)" />
    <sodipodi:guide
       position="95.387527,15.616691"
       orientation="1,0"
       id="guide8228"
       inkscape:locked="false" />
  </sodipodi:namedview>
  <metadata
     id="metadata5">
    <rdf:RDF>
      <cc:Work
         rdf:about="">
        <dc:format>image/svg+xml</dc:format>
        <dc:type
           rdf:resource="http://purl.org/dc/dcmitype/StillImage" />
        <dc:title></dc:title>
      </cc:Work>
    </rdf:RDF>
  </metadata>
  <g
     inkscape:label="Layer 1"
     inkscape:groupmode="layer"
     id="layer1"
     transform="translate(-1.0822929,-87.237609)">
    <path
       sodipodi:nodetypes="csc"
       style="fill:none;fill-rule:evenodd;stroke:#555753;stroke-width:0.25886515px;stroke-linecap:butt;stroke-linejoin:miter;stroke-opacity:1;marker-end:url(#marker3129)"
       d="m 35.788306,97.545757 c 0,3.082643 1.759823,5.980533 4.140027,5.980533 2.169172,0 4.467665,3.5785 4.467665,8.20308"
       id="path3125"
       inkscape:connector-curvature="0" />
    <g
       id="g3123"
       transform="translate(0.65481034,5.0012047)">
      <rect
         ry="0"
         rx="0"
         y="107.19579"
         x="35.608311"
         height="3.5745249"
         width="16.675014"
         id="rect936"
         style="fill:#dae5f2;fill-opacity:1;stroke:#000000;stroke-width:0.25927281;stroke-linejoin:miter;stroke-miterlimit:4;stroke-dasharray:none;stroke-opacity:1" />
      <text
         transform="scale(1.0000015,0.9999985)"
         id="text884"
         y="109.68341"
         x="36.407516"
         style="font-style:normal;font-weight:normal;font-size:2.4617641px;line-height:125%;font-family:'Bitstream Vera Sans';letter-spacing:0px;word-spacing:0px;fill:#203660;fill-opacity:1;stroke:none;stroke-width:0.25886518px;stroke-linecap:butt;stroke-linejoin:miter;stroke-opacity:1"
         xml:space="preserve"><tspan
           style="fill:#203660;stroke-width:0.25886518px"
           y="109.68341"
           x="36.407516"
           id="tspan882"
           sodipodi:role="line">composição</tspan></text>
    </g>
    <path
       inkscape:connector-curvature="0"
       id="path3112"
       d="m 84.475011,113.98426 h 4.934236"
       style="fill:none;fill-rule:evenodd;stroke:#000000;stroke-width:0.25886515px;stroke-linecap:butt;stroke-linejoin:miter;stroke-opacity:1;marker-end:url(#marker3116)"
       sodipodi:nodetypes="cc" />
    <rect
       ry="0"
       rx="0"
       y="110.62991"
       x="57.317574"
       height="6.6213889"
       width="27.128168"
       id="rect938"
       style="fill:none;fill-opacity:1;stroke:#203660;stroke-width:0.25927281;stroke-linejoin:miter;stroke-miterlimit:4;stroke-dasharray:none;stroke-opacity:1" />
    <text
       id="text898"
       y="113.6842"
       x="64.264366"
       style="font-style:normal;font-weight:normal;font-size:2.4617641px;line-height:100%;font-family:'Bitstream Vera Sans';text-align:center;letter-spacing:0px;word-spacing:0px;text-anchor:middle;fill:#000000;fill-opacity:1;stroke:none;stroke-width:0.25886515px;stroke-linecap:butt;stroke-linejoin:miter;stroke-opacity:1"
       xml:space="preserve"
       transform="scale(1.0000015,0.9999985)"><tspan
         id="tspan896"
         style="line-height:100%;text-align:center;text-anchor:middle;stroke-width:0.25886515px"
         y="113.6842"
         x="64.264366"
         sodipodi:role="line">serviço</tspan><tspan
         style="line-height:100%;text-align:center;text-anchor:middle;stroke-width:0.25886515px"
         y="116.14596"
         x="64.264366"
         sodipodi:role="line"
         id="tspan914">composto</tspan></text>
    <path
       inkscape:connector-curvature="0"
       id="path965"
       d="m 78.051875,91.253097 c 0,0 -0.875632,10.982473 4.985218,10.982473 5.860849,0 8.879508,3.48405 8.879508,9.67969"
       style="fill:none;fill-rule:evenodd;stroke:#555753;stroke-width:0.259;stroke-linecap:butt;stroke-linejoin:miter;stroke-miterlimit:4;stroke-dasharray:0.259, 0.259;stroke-dashoffset:0;stroke-opacity:1;marker-end:url(#marker969)"
       sodipodi:nodetypes="czc" />
    <text
       xml:space="preserve"
       style="font-style:normal;font-weight:normal;font-size:2.4617641px;line-height:100%;font-family:'Bitstream Vera Sans';text-align:center;letter-spacing:0px;word-spacing:0px;text-anchor:middle;fill:#000000;fill-opacity:1;stroke:none;stroke-width:0.25886515px;stroke-linecap:butt;stroke-linejoin:miter;stroke-opacity:1"
       x="77.930038"
       y="113.68897"
       id="text920"
       transform="scale(1.0000015,0.9999985)"><tspan
         id="tspan918"
         sodipodi:role="line"
         x="77.930038"
         y="113.68897"
         style="line-height:100%;text-align:center;text-anchor:middle;stroke-width:0.25886515px">repres.</tspan><tspan
         id="tspan945"
         sodipodi:role="line"
         x="77.930038"
         y="116.15073"
         style="line-height:100%;text-align:center;text-anchor:middle;stroke-width:0.25886515px">simbólica</tspan></text>
    <path
       sodipodi:nodetypes="cc"
       style="fill:none;fill-rule:evenodd;stroke:#000000;stroke-width:0.25886515px;stroke-linecap:butt;stroke-linejoin:miter;stroke-opacity:1;marker-end:url(#marker2794)"
       d="m 64.121489,95.773419 c 3.19184,0 -0.458554,-4.872721 8.184561,-4.872721"
       id="path2790"
       inkscape:connector-curvature="0" />
    <path
       inkscape:connector-curvature="0"
       id="path3131"
       d="m 78.051875,92.699207 c 0,7.102829 -7.188983,10.831243 -28.656059,10.831243 -1.590254,0 -4.999818,0.11945 -4.999818,8.19892"
       style="fill:none;fill-rule:evenodd;stroke:#555753;stroke-width:0.25886515px;stroke-linecap:butt;stroke-linejoin:miter;stroke-opacity:1;marker-end:url(#marker3135)"
       sodipodi:nodetypes="csc" />
    <path
       style="fill:none;fill-rule:evenodd;stroke:#000000;stroke-width:0.25927281;stroke-linecap:butt;stroke-linejoin:miter;stroke-miterlimit:4;stroke-dasharray:0.25927282, 0.77781843;stroke-dashoffset:0;stroke-opacity:1"
       d="m 71.856196,110.68186 v 6.60481"
       id="path948"
       inkscape:connector-curvature="0" />
    <g
       id="g5909"
       transform="matrix(0.97838803,0,0,0.97838803,1.6890505e-4,1.5425169)">
      <g
         style="fill:#f0f0f0;fill-opacity:1;stroke-width:1.24791539"
         transform="matrix(0.84531964,0,0,0.75964172,-36.334077,-11.711728)"
         id="g1003">
        <rect
           ry="0"
           rx="0"
           y="142.80922"
           x="44.456413"
           height="8.9090004"
           width="26.431231"
           id="rect988"
           style="fill:#f0f0f0;fill-opacity:1;stroke:#000000;stroke-width:0.33069754;stroke-linejoin:miter;stroke-miterlimit:4;stroke-dasharray:none;stroke-opacity:1" />
      </g>
      <text
         transform="scale(1.0000015,0.9999985)"
         id="text892"
         y="99.592163"
         x="12.414744"
         style="font-style:normal;font-weight:normal;font-size:2.51614285px;line-height:100%;font-family:'Bitstream Vera Sans';text-align:center;letter-spacing:0px;word-spacing:0px;text-anchor:middle;fill:#000000;fill-opacity:1;stroke:none;stroke-width:0.26458335px;stroke-linecap:butt;stroke-linejoin:miter;stroke-opacity:1"
         xml:space="preserve"><tspan
           style="line-height:100%;text-align:center;text-anchor:middle;stroke-width:0.26458335px"
           y="99.592163"
           x="12.815263"
           id="tspan890"
           sodipodi:role="line">fonte descoberta </tspan><tspan
           id="tspan910"
           style="line-height:100%;text-align:center;text-anchor:middle;stroke-width:0.26458335px"
           y="102.10831"
           x="12.414744"
           sodipodi:role="line">serviços</tspan></text>
    </g>
    <g
       id="g5916"
       transform="matrix(0.97838803,0,0,0.97838803,1.6890505e-4,-15.20074)">
      <g
         id="g4716"
         transform="matrix(0.84531964,0,0,0.75964172,-36.334079,-3.422516)"
         style="fill:#f0f0f0;fill-opacity:1;stroke-width:1.24791539">
        <rect
           style="fill:#f0f0f0;fill-opacity:1;stroke:#000000;stroke-width:0.33069754;stroke-linejoin:miter;stroke-miterlimit:4;stroke-dasharray:none;stroke-opacity:1"
           id="rect4714"
           width="26.431231"
           height="8.9090004"
           x="44.456413"
           y="142.80922"
           rx="0"
           ry="0" />
      </g>
      <text
         transform="scale(1.0000015,0.9999985)"
         id="text930"
         y="107.88139"
         x="12.188684"
         style="font-style:normal;font-weight:normal;font-size:2.51614285px;line-height:100%;font-family:'Bitstream Vera Sans';text-align:center;letter-spacing:0px;word-spacing:0px;text-anchor:middle;fill:#000000;fill-opacity:1;stroke:none;stroke-width:0.26458335px;stroke-linecap:butt;stroke-linejoin:miter;stroke-opacity:1"
         xml:space="preserve"><tspan
           style="line-height:100%;text-align:center;text-anchor:middle;stroke-width:0.26458335px"
           y="107.88139"
           x="12.188684"
           id="tspan926"
           sodipodi:role="line">requisitos</tspan><tspan
           style="line-height:100%;text-align:center;text-anchor:middle;stroke-width:0.26458335px"
           y="110.39754"
           x="12.188684"
           sodipodi:role="line"
           id="tspan928">não-funcionais</tspan></text>
    </g>
    <rect
       style="fill:#fcd0d0;fill-opacity:1;stroke:#000000;stroke-width:0.23749125;stroke-linejoin:miter;stroke-miterlimit:4;stroke-dasharray:none;stroke-opacity:1"
       id="rect4787"
       width="10.472276"
       height="3.5745249"
       x="72.815735"
       y="89.113449"
       rx="0"
       ry="0" />
    <text
       id="text866"
       y="91.619667"
       x="73.368637"
       style="font-style:normal;font-weight:normal;font-size:2.4617641px;line-height:125%;font-family:'Bitstream Vera Sans';letter-spacing:0px;word-spacing:0px;fill:#ef2929;fill-opacity:1;stroke:none;stroke-width:0.25886518px;stroke-linecap:butt;stroke-linejoin:miter;stroke-opacity:1"
       xml:space="preserve"
       transform="scale(1.0000015,0.9999985)"><tspan
         style="fill:#ef2929;stroke-width:0.25886518px"
         y="91.619667"
         x="73.368637"
         id="tspan864"
         sodipodi:role="line">seleção</tspan></text>
    <rect
       ry="0"
       rx="0"
       y="112.4356"
       x="89.930275"
       height="3.5745261"
       width="12.96283"
       id="rect943"
       style="fill:#f2dadf;fill-opacity:1;stroke:#000000;stroke-width:0.25927281;stroke-linejoin:miter;stroke-miterlimit:4;stroke-dasharray:none;stroke-opacity:1" />
    <text
       id="text941"
       y="114.94185"
       x="90.580482"
       style="font-style:normal;font-weight:normal;font-size:2.4617641px;line-height:125%;font-family:'Bitstream Vera Sans';letter-spacing:0px;word-spacing:0px;fill:#883044;fill-opacity:1;stroke:none;stroke-width:0.25886518px;stroke-linecap:butt;stroke-linejoin:miter;stroke-opacity:1"
       xml:space="preserve"
       transform="scale(1.0000015,0.9999985)"><tspan
         style="fill:#883044;fill-opacity:1;stroke-width:0.25886518px"
         y="114.94185"
         x="90.580482"
         id="tspan939"
         sodipodi:role="line">execução</tspan></text>
    <g
       id="g2800"
       transform="translate(5.7831147,-0.98426108)">
      <rect
         ry="0"
         rx="0"
         y="88.351547"
         x="84.669083"
         height="6.6213865"
         width="12.05054"
         id="rect4799"
         style="fill:none;fill-opacity:1;stroke:#ef2929;stroke-width:0.25927281;stroke-linejoin:miter;stroke-miterlimit:4;stroke-dasharray:none;stroke-opacity:1" />
      <text
         transform="scale(1.0000015,0.9999985)"
         id="text878"
         y="91.349251"
         x="90.560814"
         style="font-style:normal;font-weight:normal;font-size:2.4617641px;line-height:100%;font-family:'Bitstream Vera Sans';text-align:center;letter-spacing:0px;word-spacing:0px;text-anchor:middle;fill:#000000;fill-opacity:1;stroke:none;stroke-width:0.25886515px;stroke-linecap:butt;stroke-linejoin:miter;stroke-opacity:1"
         xml:space="preserve"><tspan
           style="line-height:100%;text-align:center;text-anchor:middle;fill:#000000;stroke-width:0.25886515px"
           y="91.349251"
           x="90.560814"
           id="tspan876"
           sodipodi:role="line">selected</tspan><tspan
           id="tspan880"
           style="line-height:100%;text-align:center;text-anchor:middle;fill:#000000;stroke-width:0.25886515px"
           y="93.811012"
           x="90.560814"
           sodipodi:role="line">service</tspan></text>
    </g>
    <path
       sodipodi:nodetypes="cc"
       style="fill:none;fill-rule:evenodd;stroke:#000000;stroke-width:0.25886515px;stroke-linecap:butt;stroke-linejoin:miter;stroke-opacity:1;marker-end:url(#marker975)"
       d="m 53.01024,113.98426 h 3.790833"
       id="path971"
       inkscape:connector-curvature="0" />
    <g
       id="g8233"
       transform="translate(-1.7198325)">
      <text
         transform="scale(1.0000015,0.9999985)"
         id="text995"
         y="103.66798"
         x="92.720253"
         style="font-style:normal;font-weight:normal;font-size:2.4617641px;line-height:125%;font-family:'Bitstream Vera Sans';letter-spacing:0px;word-spacing:0px;fill:#000000;fill-opacity:1;stroke:none;stroke-width:0.25886518px;stroke-linecap:butt;stroke-linejoin:miter;stroke-opacity:1"
         xml:space="preserve"><tspan
           style="stroke-width:0.25886518px"
           y="103.66798"
           x="92.720253"
           id="tspan993"
           sodipodi:role="line">entradas</tspan></text>
      <rect
         style="fill:none;fill-opacity:1;stroke:#000000;stroke-width:0.29590455;stroke-linejoin:miter;stroke-miterlimit:4;stroke-dasharray:none;stroke-opacity:1"
         id="rect997"
         width="11.638754"
         height="3.5339563"
         x="92.370277"
         y="100.98309"
         rx="0"
         ry="0" />
    </g>
    <text
       id="text1001"
       y="126.60195"
       x="89.999733"
       style="font-style:normal;font-weight:normal;font-size:2.4617641px;line-height:125%;font-family:'Bitstream Vera Sans';letter-spacing:0px;word-spacing:0px;fill:#000000;fill-opacity:1;stroke:none;stroke-width:0.25886518px;stroke-linecap:butt;stroke-linejoin:miter;stroke-opacity:1"
       xml:space="preserve"
       transform="scale(1.0000015,0.9999985)"><tspan
         style="stroke-width:0.25886518px"
         y="126.60195"
         x="89.999733"
         id="tspan999"
         sodipodi:role="line">resultados</tspan></text>
    <rect
       style="fill:none;fill-opacity:1;stroke:#883044;stroke-width:0.30600402;stroke-linejoin:miter;stroke-miterlimit:4;stroke-dasharray:none;stroke-opacity:1"
       id="rect1003"
       width="13.681885"
       height="3.5277884"
       x="89.628876"
       y="123.92012"
       rx="0"
       ry="0" />
    <path
       sodipodi:nodetypes="cc"
       style="fill:none;fill-rule:evenodd;stroke:#000000;stroke-width:0.25886515px;stroke-linecap:butt;stroke-linejoin:miter;stroke-opacity:1;marker-end:url(#marker1021)"
       d="m 96.469822,116.01854 v 7.39528"
       id="path1017"
       inkscape:connector-curvature="0" />
    <path
       inkscape:connector-curvature="0"
       id="path1023"
       d="m 96.469822,104.58894 v 7.39528"
       style="fill:none;fill-rule:evenodd;stroke:#000000;stroke-width:0.25886515px;stroke-linecap:butt;stroke-linejoin:miter;stroke-opacity:1;marker-end:url(#marker1027)"
       sodipodi:nodetypes="cc" />
    <path
       inkscape:connector-curvature="0"
       id="path1055"
       d="m 83.338362,90.682179 h 6.587019"
       style="fill:none;fill-rule:evenodd;stroke:#000000;stroke-width:0.25886515px;stroke-linecap:butt;stroke-linejoin:miter;stroke-opacity:1;marker-end:url(#marker1059)"
       sodipodi:nodetypes="cc" />
    <text
       id="text1110"
       y="108.7314"
       x="72.767082"
       style="font-style:normal;font-weight:normal;font-size:2.4617641px;line-height:125%;font-family:'Bitstream Vera Sans';letter-spacing:0px;word-spacing:0px;fill:#555753;fill-opacity:1;stroke:none;stroke-width:0.25886515px;stroke-linecap:butt;stroke-linejoin:miter;stroke-opacity:1"
       xml:space="preserve"
       transform="scale(1.0000015,0.9999985)"><tspan
         style="fill:#555753;stroke-width:0.25886515px"
         y="108.7314"
         x="72.767082"
         id="tspan1108"
         sodipodi:role="line">pode ser parte de</tspan></text>
    <path
       inkscape:connector-curvature="0"
       id="path5688"
       d="m 23.175008,108.98437 c 8.318668,0 1.967822,4.99989 12.561986,4.99989"
       style="fill:none;fill-rule:evenodd;stroke:#000000;stroke-width:0.25886515px;stroke-linecap:butt;stroke-linejoin:miter;stroke-opacity:1;marker-end:url(#marker5692)"
       sodipodi:nodetypes="cc" />
    <g
       id="g4049"
       transform="translate(0,9.4504892)">
      <g
         style="fill:#f0f0f0;fill-opacity:1;stroke-width:1.24791539"
         transform="matrix(0.82705061,0,0,0.74322436,-35.548659,-9.9160967)"
         id="g5740">
        <rect
           ry="0"
           rx="0"
           y="142.80922"
           x="44.456413"
           height="8.9090004"
           width="26.431231"
           id="rect5738"
           style="fill:#f0f0f0;fill-opacity:1;stroke:#000000;stroke-width:0.33069754;stroke-linejoin:miter;stroke-miterlimit:4;stroke-dasharray:none;stroke-opacity:1" />
      </g>
      <text
         transform="scale(1.0000015,0.9999985)"
         xml:space="preserve"
         style="font-style:normal;font-weight:normal;font-size:2.4617641px;line-height:100%;font-family:'Bitstream Vera Sans';text-align:center;letter-spacing:0px;word-spacing:0px;text-anchor:middle;fill:#000000;fill-opacity:1;stroke:none;stroke-width:0.25886518px;stroke-linecap:butt;stroke-linejoin:miter;stroke-opacity:1"
         x="11.423583"
         y="98.9823"
         id="text5736"><tspan
           sodipodi:role="line"
           id="tspan5732"
           x="11.423583"
           y="98.9823"
           style="line-height:100%;text-align:center;text-anchor:middle;stroke-width:0.25886518px">requisitos</tspan><tspan
           id="tspan5734"
           sodipodi:role="line"
           x="11.423583"
           y="101.44406"
           style="line-height:100%;text-align:center;text-anchor:middle;stroke-width:0.25886518px">funcionais</tspan></text>
    </g>
    <path
       sodipodi:nodetypes="cc"
       style="fill:none;fill-rule:evenodd;stroke:#000000;stroke-width:0.25886515px;stroke-linecap:butt;stroke-linejoin:miter;stroke-opacity:1;marker-end:url(#marker5758)"
       d="m 23.05896,99.533883 c 1.88054,0 0.09906,-3.762743 5.970984,-3.762743"
       id="path5754"
       inkscape:connector-curvature="0" />
    <rect
       ry="0"
       rx="0"
       y="93.992447"
       x="29.556223"
       height="3.5573962"
       width="14.253206"
       id="rect5408"
       style="fill:#e5fdcf;fill-opacity:1;stroke:#000000;stroke-width:0.27640146;stroke-linejoin:miter;stroke-miterlimit:4;stroke-dasharray:none;stroke-opacity:1" />
    <text
       transform="scale(1.0000015,0.9999985)"
       xml:space="preserve"
       style="font-style:normal;font-weight:normal;font-size:2.4617641px;line-height:125%;font-family:'Bitstream Vera Sans';letter-spacing:0px;word-spacing:0px;fill:#4e9a06;fill-opacity:1;stroke:none;stroke-width:0.25886518px;stroke-linecap:butt;stroke-linejoin:miter;stroke-opacity:1"
       x="29.840591"
       y="96.450439"
       id="text5412"><tspan
         sodipodi:role="line"
         id="tspan5410"
         x="29.840591"
         y="96.450439"
         style="fill:#4e9a06;fill-opacity:1;stroke-width:0.25886518px">descoberta</tspan></text>
    <g
       id="g7249"
       transform="matrix(1.0890368,0,0,1,-4.2517298,0)">
      <rect
         style="fill:#ffffff;fill-opacity:1;stroke:#4e9a06;stroke-width:0.28185725;stroke-linejoin:miter;stroke-miterlimit:4;stroke-dasharray:none;stroke-opacity:1"
         id="rect2204"
         width="14.241335"
         height="6.6213894"
         x="48.413574"
         y="92.791428"
         rx="0"
         ry="0" />
      <rect
         ry="0"
         rx="0"
         y="92.460739"
         x="48.083858"
         height="6.6213865"
         width="14.241618"
         id="rect2202"
         style="fill:#ffffff;fill-opacity:1;stroke:#4e9a06;stroke-width:0.28185996;stroke-linejoin:miter;stroke-miterlimit:4;stroke-dasharray:none;stroke-opacity:1" />
      <rect
         style="fill:#ffffff;fill-opacity:1;stroke:#4e9a06;stroke-width:0.28185996;stroke-linejoin:miter;stroke-miterlimit:4;stroke-dasharray:none;stroke-opacity:1"
         id="rect2194"
         width="14.241618"
         height="6.6213865"
         x="47.752529"
         y="92.129463"
         rx="0"
         ry="0" />
    </g>
    <text
       transform="scale(1.0000015,0.9999985)"
       id="text2200"
       y="95.127167"
       x="55.525906"
       style="font-style:normal;font-weight:normal;font-size:2.4617641px;line-height:100%;font-family:'Bitstream Vera Sans';text-align:center;letter-spacing:0px;word-spacing:0px;text-anchor:middle;fill:#000000;fill-opacity:1;stroke:none;stroke-width:0.25886515px;stroke-linecap:butt;stroke-linejoin:miter;stroke-opacity:1"
       xml:space="preserve"><tspan
         style="line-height:100%;text-align:center;text-anchor:middle;fill:#000000;stroke-width:0.25886515px"
         y="95.127167"
         x="55.525906"
         id="tspan2196"
         sodipodi:role="line">serviços</tspan><tspan
         id="tspan2198"
         style="line-height:100%;text-align:center;text-anchor:middle;fill:#000000;stroke-width:0.25886515px"
         y="97.588928"
         x="55.525906"
         sodipodi:role="line">descobertos</tspan></text>
    <path
       sodipodi:nodetypes="cc"
       style="fill:none;fill-rule:evenodd;stroke:#000000;stroke-width:0.25886515px;stroke-linecap:butt;stroke-linejoin:miter;stroke-opacity:1;marker-end:url(#marker2780)"
       d="m 23.175008,108.98437 c 2.244541,0 -2.145189,-13.21323 5.854936,-13.21323"
       id="path2776"
       inkscape:connector-curvature="0" />
    <path
       inkscape:connector-curvature="0"
       id="path2784"
       d="M 43.773385,95.773419 H 47.21934"
       style="fill:none;fill-rule:evenodd;stroke:#000000;stroke-width:0.25886515px;stroke-linecap:butt;stroke-linejoin:miter;stroke-opacity:1;marker-end:url(#marker2788)"
       sodipodi:nodetypes="cc" />
    <path
       sodipodi:nodetypes="cc"
       style="fill:none;fill-rule:evenodd;stroke:#000000;stroke-width:0.259;stroke-linecap:butt;stroke-linejoin:miter;stroke-miterlimit:4;stroke-dasharray:0.259, 0.259;stroke-dashoffset:0;stroke-opacity:1;marker-end:url(#marker3108)"
       d="m 23.12845,90.900698 h 49.1776"
       id="path3104"
       inkscape:connector-curvature="0" />
    <text
       transform="scale(1.0000015,0.9999985)"
       xml:space="preserve"
       style="font-style:normal;font-weight:normal;font-size:2.4617641px;line-height:125%;font-family:'Bitstream Vera Sans';letter-spacing:0px;word-spacing:0px;fill:#555753;fill-opacity:1;stroke:none;stroke-width:0.25886515px;stroke-linecap:butt;stroke-linejoin:miter;stroke-opacity:1"
       x="39.240913"
       y="103.16282"
       id="text3155"><tspan
         sodipodi:role="line"
         id="tspan3153"
         x="39.240913"
         y="103.16282"
         style="fill:#555753;stroke-width:0.25886515px">é parte de</tspan></text>
  </g>
</svg>
